%YAML 1.1
%TAG !u! tag:unity3d.com,2011:
--- !u!74 &7400000
AnimationClip:
  m_ObjectHideFlags: 0
  m_CorrespondingSourceObject: {fileID: 0}
  m_PrefabInstance: {fileID: 0}
  m_PrefabAsset: {fileID: 0}
  m_Name: PickBomb
  serializedVersion: 6
  m_Legacy: 0
  m_Compressed: 0
  m_UseHighQualityCurve: 1
  m_RotationCurves: []
  m_CompressedRotationCurves: []
  m_EulerCurves: []
  m_PositionCurves: []
  m_ScaleCurves: []
  m_FloatCurves: []
  m_PPtrCurves:
  - curve:
    - time: 0
      value: {fileID: 21300000, guid: bef159b1c88cf194c94aa9944a58ff4a, type: 3}
    - time: 0.06666667
      value: {fileID: 21300000, guid: 5b0112a853455a14684f3e696a476b25, type: 3}
    - time: 0.13333334
      value: {fileID: 21300000, guid: cc06a2da498527f43b2ed0c66cd25602, type: 3}
    - time: 0.2
      value: {fileID: 21300000, guid: 99fc15825beec0342b1bd83d93020dbf, type: 3}
    - time: 0.26666668
      value: {fileID: 21300000, guid: d44ad70086ec5e54f81698917bd6a6c7, type: 3}
    - time: 0.33333334
      value: {fileID: 21300000, guid: ab3e574cc24f648458fe2d0d8293d987, type: 3}
    - time: 0.4
      value: {fileID: 21300000, guid: 870b3a070a12c9a42bd67a3383406863, type: 3}
    - time: 0.46666667
      value: {fileID: 21300000, guid: e40b31a483ce62040b7bc8956f1bb8a9, type: 3}
    attribute: m_Sprite
    path: 
    classID: 212
    script: {fileID: 0}
  m_SampleRate: 15
  m_WrapMode: 0
  m_Bounds:
    m_Center: {x: 0, y: 0, z: 0}
    m_Extent: {x: 0, y: 0, z: 0}
  m_ClipBindingConstant:
    genericBindings:
    - serializedVersion: 2
      path: 0
      attribute: 0
      script: {fileID: 0}
      typeID: 212
      customType: 23
      isPPtrCurve: 1
    pptrCurveMapping:
    - {fileID: 21300000, guid: bef159b1c88cf194c94aa9944a58ff4a, type: 3}
    - {fileID: 21300000, guid: 5b0112a853455a14684f3e696a476b25, type: 3}
    - {fileID: 21300000, guid: cc06a2da498527f43b2ed0c66cd25602, type: 3}
    - {fileID: 21300000, guid: 99fc15825beec0342b1bd83d93020dbf, type: 3}
    - {fileID: 21300000, guid: d44ad70086ec5e54f81698917bd6a6c7, type: 3}
    - {fileID: 21300000, guid: ab3e574cc24f648458fe2d0d8293d987, type: 3}
    - {fileID: 21300000, guid: 870b3a070a12c9a42bd67a3383406863, type: 3}
    - {fileID: 21300000, guid: e40b31a483ce62040b7bc8956f1bb8a9, type: 3}
  m_AnimationClipSettings:
    serializedVersion: 2
    m_AdditiveReferencePoseClip: {fileID: 0}
    m_AdditiveReferencePoseTime: 0
    m_StartTime: 0
    m_StopTime: 0.53333336
    m_OrientationOffsetY: 0
    m_Level: 0
    m_CycleOffset: 0
    m_HasAdditiveReferencePose: 0
    m_LoopTime: 0
    m_LoopBlend: 0
    m_LoopBlendOrientation: 0
    m_LoopBlendPositionY: 0
    m_LoopBlendPositionXZ: 0
    m_KeepOriginalOrientation: 0
    m_KeepOriginalPositionY: 1
    m_KeepOriginalPositionXZ: 0
    m_HeightFromFeet: 0
    m_Mirror: 0
  m_EditorCurves: []
  m_EulerEditorCurves: []
  m_HasGenericRootTransform: 0
  m_HasMotionFloatCurves: 0
  m_Events: []
