%YAML 1.1
%TAG !u! tag:unity3d.com,2011:
--- !u!74 &7400000
AnimationClip:
  m_ObjectHideFlags: 0
  m_CorrespondingSourceObject: {fileID: 0}
  m_PrefabInstance: {fileID: 0}
  m_PrefabAsset: {fileID: 0}
  m_Name: Small Chain
  serializedVersion: 6
  m_Legacy: 0
  m_Compressed: 0
  m_UseHighQualityCurve: 1
  m_RotationCurves: []
  m_CompressedRotationCurves: []
  m_EulerCurves: []
  m_PositionCurves: []
  m_ScaleCurves: []
  m_FloatCurves: []
  m_PPtrCurves:
  - curve:
    - time: 0
      value: {fileID: 21300000, guid: 7df8a9aaa5047b84ea823498f54d1eb6, type: 3}
    - time: 0.04
      value: {fileID: 21300000, guid: 8c40f7c5e3183eb489a59fb5d0a1af95, type: 3}
    - time: 0.08
      value: {fileID: 21300000, guid: 850e98faa1a177d4e8597819736c2b8a, type: 3}
    - time: 0.12
      value: {fileID: 21300000, guid: 1d8c310e1a5a9c64ba232a0591f7b740, type: 3}
    - time: 0.16
      value: {fileID: 21300000, guid: 498435f547841284798bae9580fef906, type: 3}
    - time: 0.2
      value: {fileID: 21300000, guid: 74b106d159422924883bc12b4b01c278, type: 3}
    - time: 0.24
      value: {fileID: 21300000, guid: 4ed553230ae16104995c0fd5bc97bcf2, type: 3}
    - time: 0.28
      value: {fileID: 21300000, guid: 0c60d0d4511a6bc41af483c6117dfd9c, type: 3}
    - time: 0.32
      value: {fileID: 21300000, guid: 66be30dc9991f214d94ce30e99c263b4, type: 3}
    - time: 0.36
      value: {fileID: 21300000, guid: fdc1a107389777645b3ad036b7a20861, type: 3}
    attribute: m_Sprite
    path: 
    classID: 212
    script: {fileID: 0}
  m_SampleRate: 25
  m_WrapMode: 0
  m_Bounds:
    m_Center: {x: 0, y: 0, z: 0}
    m_Extent: {x: 0, y: 0, z: 0}
  m_ClipBindingConstant:
    genericBindings:
    - serializedVersion: 2
      path: 0
      attribute: 0
      script: {fileID: 0}
      typeID: 212
      customType: 23
      isPPtrCurve: 1
    pptrCurveMapping:
    - {fileID: 21300000, guid: 7df8a9aaa5047b84ea823498f54d1eb6, type: 3}
    - {fileID: 21300000, guid: 8c40f7c5e3183eb489a59fb5d0a1af95, type: 3}
    - {fileID: 21300000, guid: 850e98faa1a177d4e8597819736c2b8a, type: 3}
    - {fileID: 21300000, guid: 1d8c310e1a5a9c64ba232a0591f7b740, type: 3}
    - {fileID: 21300000, guid: 498435f547841284798bae9580fef906, type: 3}
    - {fileID: 21300000, guid: 74b106d159422924883bc12b4b01c278, type: 3}
    - {fileID: 21300000, guid: 4ed553230ae16104995c0fd5bc97bcf2, type: 3}
    - {fileID: 21300000, guid: 0c60d0d4511a6bc41af483c6117dfd9c, type: 3}
    - {fileID: 21300000, guid: 66be30dc9991f214d94ce30e99c263b4, type: 3}
    - {fileID: 21300000, guid: fdc1a107389777645b3ad036b7a20861, type: 3}
  m_AnimationClipSettings:
    serializedVersion: 2
    m_AdditiveReferencePoseClip: {fileID: 0}
    m_AdditiveReferencePoseTime: 0
    m_StartTime: 0
    m_StopTime: 0.4
    m_OrientationOffsetY: 0
    m_Level: 0
    m_CycleOffset: 0
    m_HasAdditiveReferencePose: 0
    m_LoopTime: 1
    m_LoopBlend: 0
    m_LoopBlendOrientation: 0
    m_LoopBlendPositionY: 0
    m_LoopBlendPositionXZ: 0
    m_KeepOriginalOrientation: 0
    m_KeepOriginalPositionY: 1
    m_KeepOriginalPositionXZ: 0
    m_HeightFromFeet: 0
    m_Mirror: 0
  m_EditorCurves: []
  m_EulerEditorCurves: []
  m_HasGenericRootTransform: 0
  m_HasMotionFloatCurves: 0
  m_Events: []
