%YAML 1.1
%TAG !u! tag:unity3d.com,2011:
--- !u!74 &7400000
AnimationClip:
  m_ObjectHideFlags: 0
  m_CorrespondingSourceObject: {fileID: 0}
  m_PrefabInstance: {fileID: 0}
  m_PrefabAsset: {fileID: 0}
  m_Name: Scare Run
  serializedVersion: 6
  m_Legacy: 0
  m_Compressed: 0
  m_UseHighQualityCurve: 1
  m_RotationCurves: []
  m_CompressedRotationCurves: []
  m_EulerCurves: []
  m_PositionCurves: []
  m_ScaleCurves: []
  m_FloatCurves: []
  m_PPtrCurves:
  - curve:
    - time: 0
      value: {fileID: 21300000, guid: 061c0010f6a3fd640b21f42db22f9e54, type: 3}
    - time: 0.04
      value: {fileID: 21300000, guid: ed4c4ed82de38b04d86d497e8afd5e67, type: 3}
    - time: 0.08
      value: {fileID: 21300000, guid: 370121c10b2c4a243a1ff08a2f34678b, type: 3}
    - time: 0.12
      value: {fileID: 21300000, guid: 73b9a4e902433a04ebe9f0b3c2a03627, type: 3}
    - time: 0.16
      value: {fileID: 21300000, guid: 88044cae8df58dc41856e552b3166f6b, type: 3}
    - time: 0.2
      value: {fileID: 21300000, guid: 485824aa36ffd8d47902b34cc9eb2495, type: 3}
    - time: 0.24
      value: {fileID: 21300000, guid: 6ff5617c5fe7fe948b7228bbec346537, type: 3}
    - time: 0.28
      value: {fileID: 21300000, guid: 084a0c02a4b7c2f40b6316136b20e2df, type: 3}
    - time: 0.32
      value: {fileID: 21300000, guid: d45849c59d7afd845819e0acef1b8304, type: 3}
    - time: 0.36
      value: {fileID: 21300000, guid: 600c1fac667ed9a48beee1ce4d810c0c, type: 3}
    - time: 0.4
      value: {fileID: 21300000, guid: 67cceddcb2e6de849aff8b21762d8b6b, type: 3}
    - time: 0.44
      value: {fileID: 21300000, guid: bb78e3189b95f7149a630c4af3d2e4f5, type: 3}
    attribute: m_Sprite
    path: 
    classID: 212
    script: {fileID: 0}
  m_SampleRate: 25
  m_WrapMode: 0
  m_Bounds:
    m_Center: {x: 0, y: 0, z: 0}
    m_Extent: {x: 0, y: 0, z: 0}
  m_ClipBindingConstant:
    genericBindings:
    - serializedVersion: 2
      path: 0
      attribute: 0
      script: {fileID: 0}
      typeID: 212
      customType: 23
      isPPtrCurve: 1
    pptrCurveMapping:
    - {fileID: 21300000, guid: 061c0010f6a3fd640b21f42db22f9e54, type: 3}
    - {fileID: 21300000, guid: ed4c4ed82de38b04d86d497e8afd5e67, type: 3}
    - {fileID: 21300000, guid: 370121c10b2c4a243a1ff08a2f34678b, type: 3}
    - {fileID: 21300000, guid: 73b9a4e902433a04ebe9f0b3c2a03627, type: 3}
    - {fileID: 21300000, guid: 88044cae8df58dc41856e552b3166f6b, type: 3}
    - {fileID: 21300000, guid: 485824aa36ffd8d47902b34cc9eb2495, type: 3}
    - {fileID: 21300000, guid: 6ff5617c5fe7fe948b7228bbec346537, type: 3}
    - {fileID: 21300000, guid: 084a0c02a4b7c2f40b6316136b20e2df, type: 3}
    - {fileID: 21300000, guid: d45849c59d7afd845819e0acef1b8304, type: 3}
    - {fileID: 21300000, guid: 600c1fac667ed9a48beee1ce4d810c0c, type: 3}
    - {fileID: 21300000, guid: 67cceddcb2e6de849aff8b21762d8b6b, type: 3}
    - {fileID: 21300000, guid: bb78e3189b95f7149a630c4af3d2e4f5, type: 3}
  m_AnimationClipSettings:
    serializedVersion: 2
    m_AdditiveReferencePoseClip: {fileID: 0}
    m_AdditiveReferencePoseTime: 0
    m_StartTime: 0
    m_StopTime: 0.48
    m_OrientationOffsetY: 0
    m_Level: 0
    m_CycleOffset: 0
    m_HasAdditiveReferencePose: 0
    m_LoopTime: 1
    m_LoopBlend: 0
    m_LoopBlendOrientation: 0
    m_LoopBlendPositionY: 0
    m_LoopBlendPositionXZ: 0
    m_KeepOriginalOrientation: 0
    m_KeepOriginalPositionY: 1
    m_KeepOriginalPositionXZ: 0
    m_HeightFromFeet: 0
    m_Mirror: 0
  m_EditorCurves: []
  m_EulerEditorCurves: []
  m_HasGenericRootTransform: 0
  m_HasMotionFloatCurves: 0
  m_Events: []
