%YAML 1.1
%TAG !u! tag:unity3d.com,2011:
--- !u!74 &7400000
AnimationClip:
  m_ObjectHideFlags: 0
  m_CorrespondingSourceObject: {fileID: 0}
  m_PrefabInstance: {fileID: 0}
  m_PrefabAsset: {fileID: 0}
  m_Name: Idel
  serializedVersion: 6
  m_Legacy: 0
  m_Compressed: 0
  m_UseHighQualityCurve: 1
  m_RotationCurves: []
  m_CompressedRotationCurves: []
  m_EulerCurves: []
  m_PositionCurves: []
  m_ScaleCurves: []
  m_FloatCurves: []
  m_PPtrCurves:
  - curve:
    - time: 0
      value: {fileID: 21300000, guid: bbc72aea287b0024aba0a74e36c4f175, type: 3}
    - time: 0.05
      value: {fileID: 21300000, guid: 0069fdb867ff94c46b96eb5f9613afd7, type: 3}
    - time: 0.1
      value: {fileID: 21300000, guid: f10f645c0f56655459d175dad57f4e19, type: 3}
    - time: 0.15
      value: {fileID: 21300000, guid: 567a8a3789366474aab627bec8578efd, type: 3}
    - time: 0.2
      value: {fileID: 21300000, guid: 70c956f3df94d3c4c81bd94b5274198b, type: 3}
    - time: 0.25
      value: {fileID: 21300000, guid: b27644fab7461bd41960d60054f20aea, type: 3}
    - time: 0.3
      value: {fileID: 21300000, guid: a8dcd98956bfe6c4aa3da89861abf7a8, type: 3}
    - time: 0.35
      value: {fileID: 21300000, guid: 2bcc68efad6a2d744b07a1a91176380a, type: 3}
    - time: 0.4
      value: {fileID: 21300000, guid: fd4091da664d64b469ea1806cfda4802, type: 3}
    - time: 0.45
      value: {fileID: 21300000, guid: 387568edff906dc49975ff23cf26a717, type: 3}
    - time: 0.5
      value: {fileID: 21300000, guid: 33e61377792ed554d8f86a0cc23a2125, type: 3}
    - time: 0.55
      value: {fileID: 21300000, guid: af4dea781922dee4abe14950836430e1, type: 3}
    - time: 0.6
      value: {fileID: 21300000, guid: 5cc659f7e3ad0d34d8bf42a6a2712242, type: 3}
    - time: 0.65
      value: {fileID: 21300000, guid: 129181e9ba10c314ca468bc68a0d52d1, type: 3}
    - time: 0.7
      value: {fileID: 21300000, guid: fddfe91460d7bb5488570569b8422962, type: 3}
    - time: 0.75
      value: {fileID: 21300000, guid: d285050d7dfc4104d85eb7ce25159b17, type: 3}
    - time: 0.8
      value: {fileID: 21300000, guid: b29f2b3b4b4b11842a16299905bf503f, type: 3}
    - time: 0.85
      value: {fileID: 21300000, guid: fb7fde9f1f89ca74e97646637afa6d12, type: 3}
    - time: 0.9
      value: {fileID: 21300000, guid: b09373c08e9945248954ae3467fd28dd, type: 3}
    - time: 0.95
      value: {fileID: 21300000, guid: e381346c6d8b2ce43929ffb435cc48e3, type: 3}
    - time: 1
      value: {fileID: 21300000, guid: 1ec8ad2b48335204384d33e7ce1d7029, type: 3}
    - time: 1.05
      value: {fileID: 21300000, guid: f28251d24cb06c04fb955ab955733356, type: 3}
    - time: 1.1
      value: {fileID: 21300000, guid: 1e28e71ed00df8a43b66d731a0f68c53, type: 3}
    - time: 1.15
      value: {fileID: 21300000, guid: 45e4edacb45b68f46af37a3190e6fcf4, type: 3}
    - time: 1.2
      value: {fileID: 21300000, guid: c50fb09b98a052d45b6ed8557a795945, type: 3}
    - time: 1.25
      value: {fileID: 21300000, guid: 128ef86c032ea774d8d9cd58a9ab6bad, type: 3}
    - time: 1.3
      value: {fileID: 21300000, guid: 5f1dc83129c495f4483d2fbeca9ded6f, type: 3}
    - time: 1.35
      value: {fileID: 21300000, guid: 8ef0aa836879e0544b558681bcaf4acc, type: 3}
    - time: 1.4
      value: {fileID: 21300000, guid: c6343b8b7cf5f034cb679bfa27c6de07, type: 3}
    - time: 1.45
      value: {fileID: 21300000, guid: c6ef028bbde960b4d8ebaffbfd0b774e, type: 3}
    - time: 1.5
      value: {fileID: 21300000, guid: 9816756976752c84ba9380e261b682d7, type: 3}
    - time: 1.55
      value: {fileID: 21300000, guid: feea91077b227b74c95571b1d103c147, type: 3}
    - time: 1.6
      value: {fileID: 21300000, guid: 2ab59881d041fd847b95b7706318c82f, type: 3}
    - time: 1.65
      value: {fileID: 21300000, guid: f062d8222c0be024ab24ad41c2f7c109, type: 3}
    - time: 1.7
      value: {fileID: 21300000, guid: a623c5b12baba0f4f978e5630f3dbd68, type: 3}
    - time: 1.75
      value: {fileID: 21300000, guid: 2165447cc1b6fd5489cfd30d01bc4234, type: 3}
    attribute: m_Sprite
    path: 
    classID: 212
    script: {fileID: 0}
  m_SampleRate: 20
  m_WrapMode: 0
  m_Bounds:
    m_Center: {x: 0, y: 0, z: 0}
    m_Extent: {x: 0, y: 0, z: 0}
  m_ClipBindingConstant:
    genericBindings:
    - serializedVersion: 2
      path: 0
      attribute: 0
      script: {fileID: 0}
      typeID: 212
      customType: 23
      isPPtrCurve: 1
    pptrCurveMapping:
    - {fileID: 21300000, guid: bbc72aea287b0024aba0a74e36c4f175, type: 3}
    - {fileID: 21300000, guid: 0069fdb867ff94c46b96eb5f9613afd7, type: 3}
    - {fileID: 21300000, guid: f10f645c0f56655459d175dad57f4e19, type: 3}
    - {fileID: 21300000, guid: 567a8a3789366474aab627bec8578efd, type: 3}
    - {fileID: 21300000, guid: 70c956f3df94d3c4c81bd94b5274198b, type: 3}
    - {fileID: 21300000, guid: b27644fab7461bd41960d60054f20aea, type: 3}
    - {fileID: 21300000, guid: a8dcd98956bfe6c4aa3da89861abf7a8, type: 3}
    - {fileID: 21300000, guid: 2bcc68efad6a2d744b07a1a91176380a, type: 3}
    - {fileID: 21300000, guid: fd4091da664d64b469ea1806cfda4802, type: 3}
    - {fileID: 21300000, guid: 387568edff906dc49975ff23cf26a717, type: 3}
    - {fileID: 21300000, guid: 33e61377792ed554d8f86a0cc23a2125, type: 3}
    - {fileID: 21300000, guid: af4dea781922dee4abe14950836430e1, type: 3}
    - {fileID: 21300000, guid: 5cc659f7e3ad0d34d8bf42a6a2712242, type: 3}
    - {fileID: 21300000, guid: 129181e9ba10c314ca468bc68a0d52d1, type: 3}
    - {fileID: 21300000, guid: fddfe91460d7bb5488570569b8422962, type: 3}
    - {fileID: 21300000, guid: d285050d7dfc4104d85eb7ce25159b17, type: 3}
    - {fileID: 21300000, guid: b29f2b3b4b4b11842a16299905bf503f, type: 3}
    - {fileID: 21300000, guid: fb7fde9f1f89ca74e97646637afa6d12, type: 3}
    - {fileID: 21300000, guid: b09373c08e9945248954ae3467fd28dd, type: 3}
    - {fileID: 21300000, guid: e381346c6d8b2ce43929ffb435cc48e3, type: 3}
    - {fileID: 21300000, guid: 1ec8ad2b48335204384d33e7ce1d7029, type: 3}
    - {fileID: 21300000, guid: f28251d24cb06c04fb955ab955733356, type: 3}
    - {fileID: 21300000, guid: 1e28e71ed00df8a43b66d731a0f68c53, type: 3}
    - {fileID: 21300000, guid: 45e4edacb45b68f46af37a3190e6fcf4, type: 3}
    - {fileID: 21300000, guid: c50fb09b98a052d45b6ed8557a795945, type: 3}
    - {fileID: 21300000, guid: 128ef86c032ea774d8d9cd58a9ab6bad, type: 3}
    - {fileID: 21300000, guid: 5f1dc83129c495f4483d2fbeca9ded6f, type: 3}
    - {fileID: 21300000, guid: 8ef0aa836879e0544b558681bcaf4acc, type: 3}
    - {fileID: 21300000, guid: c6343b8b7cf5f034cb679bfa27c6de07, type: 3}
    - {fileID: 21300000, guid: c6ef028bbde960b4d8ebaffbfd0b774e, type: 3}
    - {fileID: 21300000, guid: 9816756976752c84ba9380e261b682d7, type: 3}
    - {fileID: 21300000, guid: feea91077b227b74c95571b1d103c147, type: 3}
    - {fileID: 21300000, guid: 2ab59881d041fd847b95b7706318c82f, type: 3}
    - {fileID: 21300000, guid: f062d8222c0be024ab24ad41c2f7c109, type: 3}
    - {fileID: 21300000, guid: a623c5b12baba0f4f978e5630f3dbd68, type: 3}
    - {fileID: 21300000, guid: 2165447cc1b6fd5489cfd30d01bc4234, type: 3}
  m_AnimationClipSettings:
    serializedVersion: 2
    m_AdditiveReferencePoseClip: {fileID: 0}
    m_AdditiveReferencePoseTime: 0
    m_StartTime: 0
    m_StopTime: 1.8
    m_OrientationOffsetY: 0
    m_Level: 0
    m_CycleOffset: 0
    m_HasAdditiveReferencePose: 0
    m_LoopTime: 1
    m_LoopBlend: 0
    m_LoopBlendOrientation: 0
    m_LoopBlendPositionY: 0
    m_LoopBlendPositionXZ: 0
    m_KeepOriginalOrientation: 0
    m_KeepOriginalPositionY: 1
    m_KeepOriginalPositionXZ: 0
    m_HeightFromFeet: 0
    m_Mirror: 0
  m_EditorCurves: []
  m_EulerEditorCurves: []
  m_HasGenericRootTransform: 0
  m_HasMotionFloatCurves: 0
  m_Events: []
