%YAML 1.1
%TAG !u! tag:unity3d.com,2011:
--- !u!74 &7400000
AnimationClip:
  m_ObjectHideFlags: 0
  m_CorrespondingSourceObject: {fileID: 0}
  m_PrefabInstance: {fileID: 0}
  m_PrefabAsset: {fileID: 0}
  m_Name: Player Idel
  serializedVersion: 6
  m_Legacy: 0
  m_Compressed: 0
  m_UseHighQualityCurve: 1
  m_RotationCurves: []
  m_CompressedRotationCurves: []
  m_EulerCurves: []
  m_PositionCurves: []
  m_ScaleCurves: []
  m_FloatCurves: []
  m_PPtrCurves:
  - curve:
    - time: 0
      value: {fileID: 21300000, guid: a9bd98b1f0c9b634c9fcf8ddfcc0f124, type: 3}
    - time: 0.05
      value: {fileID: 21300000, guid: c5237dd324b470b4795bf23066ba469d, type: 3}
    - time: 0.1
      value: {fileID: 21300000, guid: 54d722e9cc0f5f042b86e693f412d063, type: 3}
    - time: 0.15
      value: {fileID: 21300000, guid: 3efdb1866586e004f927d2ee4c6bdb9e, type: 3}
    - time: 0.2
      value: {fileID: 21300000, guid: 89e4fabdb60f7e241a6e2e9e63cdb056, type: 3}
    - time: 0.25
      value: {fileID: 21300000, guid: 721e57237c159d648be1276718c3e74d, type: 3}
    - time: 0.3
      value: {fileID: 21300000, guid: 5a9ebd2dde605174aab176528ab3a954, type: 3}
    - time: 0.35
      value: {fileID: 21300000, guid: 55b643560ec7ffe41bfd85e7d6c12bbf, type: 3}
    - time: 0.4
      value: {fileID: 21300000, guid: 1c02705696f59a74a95ae69590d34759, type: 3}
    - time: 0.45
      value: {fileID: 21300000, guid: 7f3bd9b0995c19445be78165a8461716, type: 3}
    - time: 0.5
      value: {fileID: 21300000, guid: 233bb265c9821c04d9aa452cc82750df, type: 3}
    - time: 0.55
      value: {fileID: 21300000, guid: 7277a013910b38347b48fa900fefc9ab, type: 3}
    - time: 0.6
      value: {fileID: 21300000, guid: 278d8232fb4e55e4d83c0b804454649d, type: 3}
    - time: 0.65
      value: {fileID: 21300000, guid: 2d787a5a4a8e5da4e85102935463699a, type: 3}
    - time: 0.7
      value: {fileID: 21300000, guid: a3cee4d79ea5f334b9b2b5dde7685cce, type: 3}
    - time: 0.75
      value: {fileID: 21300000, guid: 9668e307356e5ed4b9830e9a43ea6e96, type: 3}
    - time: 0.8
      value: {fileID: 21300000, guid: 7b1bb26ae7764244795e3f788b780c88, type: 3}
    - time: 0.85
      value: {fileID: 21300000, guid: fdb31e82f4de7404cb002cb270a3522f, type: 3}
    - time: 0.9
      value: {fileID: 21300000, guid: 63469458c783f5241b8c381ff1da6928, type: 3}
    - time: 0.95
      value: {fileID: 21300000, guid: 1de1ccb8d56668445a88860e45c2cf4a, type: 3}
    - time: 1
      value: {fileID: 21300000, guid: 733e775a83ae6c742a9414bee81fa222, type: 3}
    - time: 1.05
      value: {fileID: 21300000, guid: 89a9d7bb7fc469049b70fec6942768a8, type: 3}
    - time: 1.1
      value: {fileID: 21300000, guid: eb9a1470cf2bc7648be2ff8f9ec03454, type: 3}
    - time: 1.15
      value: {fileID: 21300000, guid: 8c476bca921e43848b531bf48565e1a8, type: 3}
    - time: 1.2
      value: {fileID: 21300000, guid: 12bda01bd8d56044e808207a2f2b5589, type: 3}
    - time: 1.25
      value: {fileID: 21300000, guid: ccc1211e47d3b1244b8738473f033cbd, type: 3}
    attribute: m_Sprite
    path: 
    classID: 212
    script: {fileID: 0}
  m_SampleRate: 20
  m_WrapMode: 0
  m_Bounds:
    m_Center: {x: 0, y: 0, z: 0}
    m_Extent: {x: 0, y: 0, z: 0}
  m_ClipBindingConstant:
    genericBindings:
    - serializedVersion: 2
      path: 0
      attribute: 0
      script: {fileID: 0}
      typeID: 212
      customType: 23
      isPPtrCurve: 1
    pptrCurveMapping:
    - {fileID: 21300000, guid: a9bd98b1f0c9b634c9fcf8ddfcc0f124, type: 3}
    - {fileID: 21300000, guid: c5237dd324b470b4795bf23066ba469d, type: 3}
    - {fileID: 21300000, guid: 54d722e9cc0f5f042b86e693f412d063, type: 3}
    - {fileID: 21300000, guid: 3efdb1866586e004f927d2ee4c6bdb9e, type: 3}
    - {fileID: 21300000, guid: 89e4fabdb60f7e241a6e2e9e63cdb056, type: 3}
    - {fileID: 21300000, guid: 721e57237c159d648be1276718c3e74d, type: 3}
    - {fileID: 21300000, guid: 5a9ebd2dde605174aab176528ab3a954, type: 3}
    - {fileID: 21300000, guid: 55b643560ec7ffe41bfd85e7d6c12bbf, type: 3}
    - {fileID: 21300000, guid: 1c02705696f59a74a95ae69590d34759, type: 3}
    - {fileID: 21300000, guid: 7f3bd9b0995c19445be78165a8461716, type: 3}
    - {fileID: 21300000, guid: 233bb265c9821c04d9aa452cc82750df, type: 3}
    - {fileID: 21300000, guid: 7277a013910b38347b48fa900fefc9ab, type: 3}
    - {fileID: 21300000, guid: 278d8232fb4e55e4d83c0b804454649d, type: 3}
    - {fileID: 21300000, guid: 2d787a5a4a8e5da4e85102935463699a, type: 3}
    - {fileID: 21300000, guid: a3cee4d79ea5f334b9b2b5dde7685cce, type: 3}
    - {fileID: 21300000, guid: 9668e307356e5ed4b9830e9a43ea6e96, type: 3}
    - {fileID: 21300000, guid: 7b1bb26ae7764244795e3f788b780c88, type: 3}
    - {fileID: 21300000, guid: fdb31e82f4de7404cb002cb270a3522f, type: 3}
    - {fileID: 21300000, guid: 63469458c783f5241b8c381ff1da6928, type: 3}
    - {fileID: 21300000, guid: 1de1ccb8d56668445a88860e45c2cf4a, type: 3}
    - {fileID: 21300000, guid: 733e775a83ae6c742a9414bee81fa222, type: 3}
    - {fileID: 21300000, guid: 89a9d7bb7fc469049b70fec6942768a8, type: 3}
    - {fileID: 21300000, guid: eb9a1470cf2bc7648be2ff8f9ec03454, type: 3}
    - {fileID: 21300000, guid: 8c476bca921e43848b531bf48565e1a8, type: 3}
    - {fileID: 21300000, guid: 12bda01bd8d56044e808207a2f2b5589, type: 3}
    - {fileID: 21300000, guid: ccc1211e47d3b1244b8738473f033cbd, type: 3}
  m_AnimationClipSettings:
    serializedVersion: 2
    m_AdditiveReferencePoseClip: {fileID: 0}
    m_AdditiveReferencePoseTime: 0
    m_StartTime: 0
    m_StopTime: 1.3
    m_OrientationOffsetY: 0
    m_Level: 0
    m_CycleOffset: 0
    m_HasAdditiveReferencePose: 0
    m_LoopTime: 1
    m_LoopBlend: 0
    m_LoopBlendOrientation: 0
    m_LoopBlendPositionY: 0
    m_LoopBlendPositionXZ: 0
    m_KeepOriginalOrientation: 0
    m_KeepOriginalPositionY: 1
    m_KeepOriginalPositionXZ: 0
    m_HeightFromFeet: 0
    m_Mirror: 0
  m_EditorCurves: []
  m_EulerEditorCurves: []
  m_HasGenericRootTransform: 0
  m_HasMotionFloatCurves: 0
  m_Events: []
