%YAML 1.1
%TAG !u! tag:unity3d.com,2011:
--- !u!74 &7400000
AnimationClip:
  m_ObjectHideFlags: 0
  m_CorrespondingSourceObject: {fileID: 0}
  m_PrefabInstance: {fileID: 0}
  m_PrefabAsset: {fileID: 0}
  m_Name: Run
  serializedVersion: 6
  m_Legacy: 0
  m_Compressed: 0
  m_UseHighQualityCurve: 1
  m_RotationCurves: []
  m_CompressedRotationCurves: []
  m_EulerCurves: []
  m_PositionCurves: []
  m_ScaleCurves: []
  m_FloatCurves: []
  m_PPtrCurves:
  - curve:
    - time: 0
      value: {fileID: 21300000, guid: 881a6d68240992447839051044e04cc7, type: 3}
    - time: 0.05
      value: {fileID: 21300000, guid: 06bc7153b81fade48bbe2bb2dc95f50b, type: 3}
    - time: 0.1
      value: {fileID: 21300000, guid: 92d43c142f045cc4c9166f122e152d27, type: 3}
    - time: 0.15
      value: {fileID: 21300000, guid: f42571bd7d1cbbb499568334fbd8a23d, type: 3}
    - time: 0.2
      value: {fileID: 21300000, guid: 059266984b52fcb459910bb172712031, type: 3}
    - time: 0.25
      value: {fileID: 21300000, guid: 8734080219387c248a2246b2110d3dc5, type: 3}
    - time: 0.3
      value: {fileID: 21300000, guid: 7ca49f672aa0e0e46af33faaa21e530e, type: 3}
    - time: 0.35
      value: {fileID: 21300000, guid: 27d2be4ebdf3a7f42a42759e5d242e5d, type: 3}
    - time: 0.4
      value: {fileID: 21300000, guid: eff231ba4ba18694a91421c679cb0e48, type: 3}
    - time: 0.45
      value: {fileID: 21300000, guid: c15965849c223e44f88ddd229b35cc08, type: 3}
    - time: 0.5
      value: {fileID: 21300000, guid: 68e55c47fd2a7fe4a9f222cfa3f5c573, type: 3}
    - time: 0.55
      value: {fileID: 21300000, guid: 7fe6dae72c1a68e47b1f51697cc9113a, type: 3}
    - time: 0.6
      value: {fileID: 21300000, guid: 2fd7d6450b250d74f9608dab18a0c598, type: 3}
    - time: 0.65
      value: {fileID: 21300000, guid: e3ef6411e11e33e488bebb2577d7f3df, type: 3}
    attribute: m_Sprite
    path: 
    classID: 212
    script: {fileID: 0}
  m_SampleRate: 20
  m_WrapMode: 0
  m_Bounds:
    m_Center: {x: 0, y: 0, z: 0}
    m_Extent: {x: 0, y: 0, z: 0}
  m_ClipBindingConstant:
    genericBindings:
    - serializedVersion: 2
      path: 0
      attribute: 0
      script: {fileID: 0}
      typeID: 212
      customType: 23
      isPPtrCurve: 1
    pptrCurveMapping:
    - {fileID: 21300000, guid: 881a6d68240992447839051044e04cc7, type: 3}
    - {fileID: 21300000, guid: 06bc7153b81fade48bbe2bb2dc95f50b, type: 3}
    - {fileID: 21300000, guid: 92d43c142f045cc4c9166f122e152d27, type: 3}
    - {fileID: 21300000, guid: f42571bd7d1cbbb499568334fbd8a23d, type: 3}
    - {fileID: 21300000, guid: 059266984b52fcb459910bb172712031, type: 3}
    - {fileID: 21300000, guid: 8734080219387c248a2246b2110d3dc5, type: 3}
    - {fileID: 21300000, guid: 7ca49f672aa0e0e46af33faaa21e530e, type: 3}
    - {fileID: 21300000, guid: 27d2be4ebdf3a7f42a42759e5d242e5d, type: 3}
    - {fileID: 21300000, guid: eff231ba4ba18694a91421c679cb0e48, type: 3}
    - {fileID: 21300000, guid: c15965849c223e44f88ddd229b35cc08, type: 3}
    - {fileID: 21300000, guid: 68e55c47fd2a7fe4a9f222cfa3f5c573, type: 3}
    - {fileID: 21300000, guid: 7fe6dae72c1a68e47b1f51697cc9113a, type: 3}
    - {fileID: 21300000, guid: 2fd7d6450b250d74f9608dab18a0c598, type: 3}
    - {fileID: 21300000, guid: e3ef6411e11e33e488bebb2577d7f3df, type: 3}
  m_AnimationClipSettings:
    serializedVersion: 2
    m_AdditiveReferencePoseClip: {fileID: 0}
    m_AdditiveReferencePoseTime: 0
    m_StartTime: 0
    m_StopTime: 0.7
    m_OrientationOffsetY: 0
    m_Level: 0
    m_CycleOffset: 0
    m_HasAdditiveReferencePose: 0
    m_LoopTime: 1
    m_LoopBlend: 0
    m_LoopBlendOrientation: 0
    m_LoopBlendPositionY: 0
    m_LoopBlendPositionXZ: 0
    m_KeepOriginalOrientation: 0
    m_KeepOriginalPositionY: 1
    m_KeepOriginalPositionXZ: 0
    m_HeightFromFeet: 0
    m_Mirror: 0
  m_EditorCurves: []
  m_EulerEditorCurves: []
  m_HasGenericRootTransform: 0
  m_HasMotionFloatCurves: 0
  m_Events: []
